v 20220529 2
P 400 400 500 400 1 0 1
{
T 300 350 5 8 1 1 0 0 1
pinnumber=2
T 250 350 5 8 0 0 0 0 1
pinseq=2
T 250 350 5 8 0 1 0 0 1
pinlabel=2
T 250 350 5 8 0 1 0 0 1
pintype=pas
}
P 400 100 500 100 1 0 1
{
T 300 50 5 8 1 1 0 0 1
pinnumber=4
T 250 50 5 8 0 0 0 0 1
pinseq=4
T 250 50 5 8 0 1 0 0 1
pinlabel=4
T 250 50 5 8 0 1 0 0 1
pintype=pas
}
T 400 900 5 10 0 0 0 0 1
device=CONNECTOR_2
B 300 0 200 200 3 0 0 0 -1 -1 0 -1 -1 -1 -1 -1
T 250 650 8 10 1 1 0 4 1
refdes=J?
T 400 1100 5 10 0 0 0 0 1
pins=2
T 400 1300 5 10 0 0 0 0 1
class=IO
B 300 300 200 200 3 0 0 0 -1 -1 0 -1 -1 -1 -1 -1
P 100 100 0 100 1 0 1
{
T 250 50 5 8 0 0 0 6 1
pinseq=3
T 250 50 5 8 0 1 0 6 1
pinlabel=3
T 250 50 5 8 0 1 0 6 1
pintype=pas
T 200 50 5 8 1 1 0 6 1
pinnumber=3
}
P 100 400 0 400 1 0 1
{
T 250 350 5 8 0 0 0 6 1
pinseq=1
T 250 350 5 8 0 1 0 6 1
pinlabel=1
T 250 350 5 8 0 1 0 6 1
pintype=pas
T 200 350 5 8 1 1 0 6 1
pinnumber=1
}
B 0 0 200 200 3 0 0 0 -1 -1 0 -1 -1 -1 -1 -1
B 0 300 200 200 3 0 0 0 -1 -1 0 -1 -1 -1 -1 -1
