v 20220529 2
C 39400 40800 0 0 0 title-B.sym
{
T 49400 41800 19 25 1 1 0 0 1
title=blinkenlights
T 53500 41200 19 10 1 1 0 0 1
version=v01
T 53500 40900 19 10 1 1 0 0 1
author=SiB
T 49400 41500 19 10 1 1 0 0 1
git=https://codeberg.org/SiB64/blinkenlights.git
T 49400 41200 19 10 1 1 0 0 1
file=blinkenlights.sch
}
C 41800 49400 1 0 0 lm317-1.sym
{
T 42100 51100 5 10 0 0 0 0 1
device=LM317
T 42900 50500 5 10 1 1 0 6 1
refdes=U2
T 42150 49750 5 5 1 1 0 0 1
footprint=SOT223
T 42900 50000 5 10 1 1 0 0 1
net=Vcc:4
T 42100 51000 5 10 1 1 0 0 1
value=LM317AEMP
}
C 45300 44000 1 0 0 header6.sym
{
T 45300 45200 5 10 0 1 0 0 1
device=HEADER6
T 45900 45300 5 10 1 1 0 0 1
refdes=J3
T 46300 42500 5 10 0 1 0 0 1
footprint=HE_100mil_6_2
}
C 40900 43500 1 0 0 ATtiny12.sym
{
T 43200 45800 5 10 1 1 0 6 1
refdes=U3
T 41200 45950 5 10 0 0 0 0 1
device=ATtiny12
T 41200 46150 5 10 0 0 0 0 1
footprint=SOIC_150_8
T 42700 43550 5 7 1 1 0 0 1
net=GND:4
T 42200 43550 5 7 1 1 0 0 1
net=Vcc:8
T 41300 43600 5 5 1 1 0 0 1
footprint=SOIC_150_8
T 41200 45950 5 10 1 1 0 0 1
value=ATtiny13A-SS
}
N 43500 45000 45300 45000 4
N 43500 44600 45300 44600 4
{
T 45650 44600 5 5 1 1 0 1 1
netname=SCK
}
N 43500 45400 46800 45400 4
N 46800 45400 46800 44600 4
N 46800 44600 46700 44600 4
N 40900 43800 40600 43800 4
N 40600 43800 40600 43000 4
N 40600 43000 44400 43000 4
N 44400 43000 44400 45700 4
N 44400 44200 45300 44200 4
{
T 45650 44200 5 5 1 1 0 1 1
netname=Reset
}
C 44600 50200 1 270 0 capacitor-4.sym
{
T 45700 50000 5 10 0 0 270 0 1
device=POLARIZED_CAPACITOR
T 44700 50000 5 10 1 1 90 4 1
refdes=C2
T 45300 50000 5 10 0 0 270 0 1
symversion=0.2
T 45300 49800 5 10 0 1 90 4 1
footprint=p1206
T 45100 49800 5 10 1 1 90 4 1
value=10µF
}
C 44100 49200 1 90 0 resistor-2.sym
{
T 43750 49600 5 10 0 0 90 0 1
device=RESISTOR
T 44000 49650 5 10 1 1 90 4 1
refdes=R2
T 44400 49650 5 10 0 1 90 4 1
footprint=c0603
T 44200 49650 5 10 1 1 90 4 1
value=1.2kΩ
T 43400 49400 5 10 0 0 90 0 1
symversion=0.1
}
C 42900 48200 1 90 0 resistor-2.sym
{
T 42550 48600 5 10 0 0 90 0 1
device=RESISTOR
T 42800 48650 5 10 1 1 90 4 1
refdes=R1
T 43200 48650 5 10 0 1 90 4 1
footprint=c0603
T 43000 48650 5 10 1 1 90 4 1
value=3.9kΩ
T 42200 48400 5 10 0 0 90 0 1
symversion=0.1
}
C 45400 47900 1 0 0 gnd-1.sym
N 41800 50200 40800 50200 4
{
T 40900 50250 5 5 1 1 0 0 1
netname=Vprim
}
N 41100 48200 45500 48200 4
N 41100 48200 41100 49900 4
C 41300 50200 1 270 0 capacitor-4.sym
{
T 42400 50000 5 10 0 0 270 0 1
device=POLARIZED_CAPACITOR
T 41400 50000 5 10 1 1 90 4 1
refdes=C1
T 42000 50000 5 10 0 0 270 0 1
symversion=0.2
T 42000 49800 5 10 0 1 90 4 1
footprint=p1206
T 41800 49800 5 10 1 1 90 4 1
value=10µF
}
N 41100 49900 40800 49900 4
N 42800 49100 44000 49100 4
{
T 42900 49150 5 5 1 1 0 0 1
netname=Vadj
}
N 44000 49100 44000 49200 4
N 42800 49100 42800 49400 4
N 43800 50200 45600 50200 4
N 44000 50100 44000 50200 4
N 44800 48200 44800 49300 4
N 41500 49300 41500 48200 4
C 45300 50500 1 0 0 vcc-1.sym
N 45600 49900 45500 49900 4
N 45500 49900 45500 48200 4
C 51600 43600 1 0 0 lm555-1.sym
{
T 56600 47600 5 10 0 0 0 0 1
device=NE555
T 53200 46000 5 10 1 1 0 4 1
refdes=U1
T 51900 43700 5 5 1 1 0 0 1
footprint=SOIC_150_8
T 53400 46000 5 10 1 1 0 0 1
value=NE555D
}
C 54400 45300 1 0 0 io-1.sym
{
T 55300 45500 5 10 0 0 0 0 1
net=OUT:1
T 54600 45900 5 10 0 0 0 0 1
device=none
T 54900 45400 5 10 1 1 0 4 1
value=OUT
}
C 51500 43100 1 0 0 gnd-1.sym
N 48100 43400 51600 43400 4
N 54400 44900 55500 44900 4
N 55500 44900 55500 47000 4
N 50100 47000 55500 47000 4
C 50400 44800 1 180 0 io-1.sym
{
T 49500 44600 5 10 0 0 180 0 1
net=TRIG:1
T 50200 44200 5 10 0 0 180 0 1
device=none
T 49900 44700 5 10 1 1 180 4 1
value=TRIG
}
N 50900 44500 51600 44500 4
{
T 51200 44550 5 5 1 1 0 0 1
netname=U1TRIG
}
N 50900 45000 50900 45300 4
N 51100 45100 51600 45100 4
{
T 51200 45150 5 5 1 1 0 0 1
netname=CONT
}
C 51400 45800 1 0 0 vcc-1.sym
C 48400 47200 1 90 1 vcc-1.sym
C 49200 47100 1 180 0 resistor-2.sym
{
T 48800 46750 5 10 0 0 180 0 1
device=RESISTOR
T 48750 47000 5 10 1 1 180 4 1
refdes=RA0
T 48750 47200 5 10 0 1 180 4 1
footprint=c0603
T 48750 46750 5 10 1 1 180 4 1
value=10kΩ
T 49000 46400 5 10 0 0 180 0 1
symversion=0.1
}
N 49600 46500 50100 46500 4
{
T 50200 46550 5 5 1 1 90 0 1
netname=DISC
}
C 50800 46100 1 90 0 io-1.sym
{
T 50600 47000 5 10 0 0 90 0 1
net=RES:1
T 50200 46300 5 10 0 0 90 0 1
device=none
T 50700 46600 5 10 1 1 90 4 1
value=RES
}
N 50900 44700 50900 44500 4
C 49100 44300 1 270 0 capacitor-4.sym
{
T 50200 44100 5 10 0 0 270 0 1
device=POLARIZED_CAPACITOR
T 49100 44100 5 10 1 1 180 4 1
refdes=CA
T 49800 44100 5 10 0 0 270 0 1
symversion=0.2
T 49600 43900 5 10 0 1 90 4 1
footprint=p1206
T 49800 43800 5 10 1 1 0 4 1
value=10µF
}
N 49300 45300 51600 45300 4
N 50100 46300 50100 47000 4
N 49300 44700 49300 45300 4
C 51300 43400 1 90 0 capacitor-1.sym
{
T 50600 43600 5 10 0 0 90 0 1
device=CAPACITOR
T 50400 43600 5 10 0 0 90 0 1
symversion=0.2
T 51150 43750 5 10 1 1 180 6 1
refdes=C5
T 50600 43600 5 10 0 1 90 0 1
footprint=c0603
T 51050 43750 5 10 1 1 180 0 1
value=100nF
}
N 51600 43900 51600 43400 4
C 48300 43400 1 90 0 capacitor-1.sym
{
T 47600 43600 5 10 0 0 90 0 1
device=CAPACITOR
T 47400 43600 5 10 0 0 90 0 1
symversion=0.2
T 47650 44150 5 10 1 1 180 6 1
refdes=CA0
T 47600 43600 5 10 0 1 90 0 1
footprint=c0805
T 48050 43750 5 10 1 1 180 0 1
value=100nF
}
N 49400 44700 48100 44700 4
C 42900 41700 1 90 0 capacitor-1.sym
{
T 42200 41900 5 10 0 0 90 0 1
device=CAPACITOR
T 42000 41900 5 10 0 0 90 0 1
symversion=0.2
T 42750 42050 5 10 1 1 180 6 1
refdes=C3
T 42200 41900 5 10 0 1 90 0 1
footprint=c0603
T 42650 42050 5 10 1 1 180 0 1
value=100nF
}
C 42500 42400 1 0 0 vcc-1.sym
C 42600 41600 1 0 0 gnd-1.sym
C 47400 44100 1 90 0 gnd-1.sym
C 46900 45200 1 0 0 vcc-1.sym
C 47300 44200 1 90 0 capacitor-1.sym
{
T 46600 44400 5 10 0 0 90 0 1
device=CAPACITOR
T 46400 44400 5 10 0 0 90 0 1
symversion=0.2
T 46600 44400 5 10 0 1 90 0 1
footprint=c0603
T 47150 44550 5 10 1 1 180 6 1
refdes=C4
T 47150 44750 5 10 1 1 0 0 1
value=100nF
}
N 47100 44200 46700 44200 4
N 46700 45000 46700 45200 4
N 46700 45200 47100 45200 4
N 47100 45200 47100 45100 4
N 42700 42400 42700 42600 4
N 42700 41900 42700 41700 4
C 44900 46300 1 90 0 io-1.sym
{
T 44700 47200 5 10 0 0 90 0 1
net=RES:1
T 44300 46500 5 10 0 0 90 0 1
device=none
T 44800 46800 5 10 1 1 90 4 1
value=RES
}
C 44100 46300 1 90 0 io-1.sym
{
T 43900 47200 5 10 0 0 90 0 1
net=TRIG:1
T 43500 46500 5 10 0 0 90 0 1
device=none
T 44000 46800 5 10 1 1 90 4 1
value=TRIG
}
C 49300 45400 1 180 0 io-1.sym
{
T 48400 45200 5 10 0 0 180 0 1
net=THR:1
T 49100 44800 5 10 0 0 180 0 1
device=none
T 48800 45300 5 10 1 1 180 4 1
value=THR
}
C 44500 46300 1 90 0 io-1.sym
{
T 44300 47200 5 10 0 0 90 0 1
net=THR:1
T 43900 46500 5 10 0 0 90 0 1
device=none
T 44400 46800 5 10 1 1 90 4 1
value=THR
}
C 44700 42800 1 270 0 io-1.sym
{
T 44900 41900 5 10 0 0 270 0 1
net=LED1:1
T 45300 42600 5 10 0 0 270 0 1
device=none
T 44800 42300 5 10 1 1 270 4 1
value=LED1
}
C 43900 42800 1 270 0 io-1.sym
{
T 44100 41900 5 10 0 0 270 0 1
net=LED2:1
T 44500 42600 5 10 0 0 270 0 1
device=none
T 44000 42300 5 10 1 1 270 4 1
value=LED2
}
C 45300 42800 1 0 0 header6.sym
{
T 45300 44000 5 10 0 1 0 0 1
device=HEADER6
T 45900 42500 5 10 1 1 0 0 1
refdes=J4
T 46300 42300 5 10 0 1 0 0 1
footprint=HE_100mil_6_2
}
C 52200 50400 1 90 0 io-1.sym
{
T 52000 51300 5 10 0 0 90 0 1
net=LED1:1
T 51600 50600 5 10 0 0 90 0 1
device=none
T 52100 50900 5 10 1 1 90 4 1
value=LED1
}
C 53100 50400 1 90 0 io-1.sym
{
T 52900 51300 5 10 0 0 90 0 1
net=LED2:1
T 52500 50600 5 10 0 0 90 0 1
device=none
T 53000 50900 5 10 1 1 90 4 1
value=LED2
}
C 55000 49600 1 90 0 resistor-2.sym
{
T 54650 50000 5 10 0 0 90 0 1
device=RESISTOR
T 54300 49800 5 10 0 0 90 0 1
symversion=0.1
T 55300 50050 5 10 0 1 90 4 1
footprint=c0603
T 54900 50050 5 10 1 1 90 4 1
refdes=R14
T 55100 50050 5 10 1 1 90 4 1
value=1kΩ
}
C 54800 48300 1 0 0 gnd-1.sym
C 52200 49600 1 90 0 resistor-2.sym
{
T 51850 50000 5 10 0 0 90 0 1
device=RESISTOR
T 51500 49800 5 10 0 0 90 0 1
symversion=0.1
T 52500 50050 5 10 0 1 90 4 1
footprint=c0603
T 52100 50050 5 10 1 1 90 4 1
refdes=R11
T 52300 50050 5 10 1 1 90 4 1
value=1kΩ
}
C 52000 48300 1 0 0 gnd-1.sym
C 53100 49600 1 90 0 resistor-2.sym
{
T 52750 50000 5 10 0 0 90 0 1
device=RESISTOR
T 52400 49800 5 10 0 0 90 0 1
symversion=0.1
T 53400 50050 5 10 0 1 90 4 1
footprint=c0603
T 53000 50050 5 10 1 1 90 4 1
refdes=R12
T 53200 50050 5 10 1 1 90 4 1
value=1kΩ
}
C 52900 48300 1 0 0 gnd-1.sym
C 54100 49600 1 90 0 resistor-2.sym
{
T 53750 50000 5 10 0 0 90 0 1
device=RESISTOR
T 53400 49800 5 10 0 0 90 0 1
symversion=0.1
T 54400 50050 5 10 0 1 90 4 1
footprint=c0603
T 54000 50050 5 10 1 1 90 4 1
refdes=R13
T 54200 50050 5 10 1 1 90 4 1
value=1kΩ
}
C 53900 48300 1 0 0 gnd-1.sym
C 54700 50400 1 0 0 vcc-1.sym
C 54100 50400 1 90 0 io-1.sym
{
T 53900 51300 5 10 0 0 90 0 1
net=OUT:1
T 53500 50600 5 10 0 0 90 0 1
device=none
T 54000 50900 5 10 1 1 90 4 1
value=OUT
}
C 47000 42900 1 90 0 gnd-1.sym
N 44800 43000 45300 43000 4
{
T 45650 43000 5 5 1 1 0 1 1
netname=LED1
}
N 44800 42800 44800 43800 4
N 44800 43800 43500 43800 4
N 43500 44200 44000 44200 4
N 44000 42800 44000 44200 4
N 44000 43400 45300 43400 4
{
T 45650 43400 5 5 1 1 0 1 1
netname=LED2
}
C 45300 46300 1 90 0 io-1.sym
{
T 45100 47200 5 10 0 0 90 0 1
net=OUT:1
T 44700 46500 5 10 0 0 90 0 1
device=none
T 45200 46800 5 10 1 1 90 4 1
value=OUT
}
N 45200 44600 45200 45700 4
N 45200 45700 45300 45700 4
N 45200 46300 45200 46000 4
N 45200 46000 45300 46000 4
N 44000 45000 44000 46300 4
N 44800 46300 44800 45400 4
N 44400 46300 44400 46000 4
N 44400 46000 44500 46000 4
N 44400 45700 44500 45700 4
N 48100 44300 48100 44700 4
C 49100 44200 1 0 0 header2.sym
{
T 49300 45200 5 10 0 0 0 0 1
device=CONNECTOR_2
T 49200 44850 5 10 1 1 0 0 1
refdes=J9
T 49500 44300 5 5 0 1 90 0 1
footprint=HE_100mil_2_2
}
N 49400 44400 49300 44400 4
N 49300 44300 49300 44400 4
{
T 49450 44350 5 5 1 1 0 0 1
netname=CA2J
}
N 51100 44300 51100 45800 4
C 55300 43300 1 90 0 capacitor-1.sym
{
T 54600 43500 5 10 0 0 90 0 1
device=CAPACITOR
T 54400 43500 5 10 0 0 90 0 1
symversion=0.2
T 54600 43500 5 10 0 1 90 0 1
footprint=c0603
T 55150 43650 5 10 1 1 180 6 1
refdes=C6
T 55050 43650 5 10 1 1 180 0 1
value=100nF
}
C 54900 44000 1 0 0 vcc-1.sym
C 55000 43200 1 0 0 gnd-1.sym
N 55100 44000 55100 44200 4
N 55100 43500 55100 43300 4
C 47000 43300 1 90 0 gnd-1.sym
C 50900 45700 1 0 0 header4-2.sym
{
T 51300 46600 5 10 0 0 0 0 1
device=CONNECTOR_2
T 51150 46350 5 10 1 1 0 4 1
refdes=J8
T 50400 45500 5 10 0 1 0 0 1
footprint=HE_100mil_4_2
}
N 50700 46100 50900 46100 4
N 51100 45800 50900 45800 4
N 51400 45800 51600 45800 4
N 51400 46100 51400 46200 4
N 51400 46200 51600 46200 4
{
T 51500 46250 5 5 1 1 90 0 1
netname=U1RES
}
N 50800 44700 50900 44700 4
N 50800 45000 50900 45000 4
N 49600 45800 49600 45300 4
C 45300 49700 1 0 0 header2.sym
{
T 45500 50700 5 10 0 0 0 0 1
device=CONNECTOR_2
T 45700 49950 5 10 1 1 0 0 1
refdes=J2
T 45700 49800 5 5 0 1 90 0 1
footprint=HE_100mil_2_2
}
C 40500 49700 1 0 0 header2.sym
{
T 40700 50700 5 10 0 0 0 0 1
device=CONNECTOR_2
T 40400 49950 5 10 1 1 0 0 1
refdes=J1
T 40900 49800 5 5 0 1 90 0 1
footprint=HE_100mil_2_2
}
C 52300 48600 1 90 0 led-3.sym
{
T 51650 49550 5 10 0 0 90 0 1
device=LED
T 51750 49050 5 10 1 1 90 0 1
refdes=D11
T 52400 48800 5 10 0 1 90 0 1
footprint=c0603
T 52400 48500 5 10 0 1 90 0 1
value=LED red
}
C 50200 45300 1 90 0 poti.sym
{
T 50100 45800 5 10 1 1 90 4 1
refdes=RB
T 49300 46100 5 10 0 1 90 0 1
device=VARIABLE_RESISTOR
T 49350 47550 5 10 1 1 0 2 1
value=1MΩ PV36W105C01B00
T 49500 46100 5 10 0 0 90 0 1
symversion=0.1
T 50350 45500 5 10 0 1 90 0 1
footprint=PV36W
}
C 49100 47100 1 180 1 poti.sym
{
T 49600 47000 5 10 1 1 180 4 1
refdes=RA
T 49900 46200 5 10 0 1 180 6 1
device=VARIABLE_RESISTOR
T 49350 47150 5 10 1 1 180 8 1
value=1MΩ PV36W105C01B00
T 49900 46400 5 10 0 0 180 6 1
symversion=0.1
T 49300 47250 5 10 0 1 180 6 1
footprint=PV36W
}
N 45500 50500 45500 50200 4
C 50300 44600 1 0 0 header4-2.sym
{
T 50700 45500 5 10 0 0 0 0 1
device=CONNECTOR_2
T 50550 45250 5 10 1 1 0 4 1
refdes=J7
T 49800 44400 5 10 0 1 0 0 1
footprint=HE_100mil_4_2
}
N 50400 44700 50300 44700 4
C 49000 49600 1 90 0 resistor-2.sym
{
T 48650 50000 5 10 0 0 90 0 1
device=RESISTOR
T 48900 50050 5 10 1 1 90 4 1
refdes=R3
T 49100 50050 5 10 0 1 90 4 1
footprint=c0603
T 48650 50050 5 10 1 1 90 4 1
value=10kΩ
T 48300 49800 5 10 0 0 90 0 1
symversion=0.1
}
C 49100 50500 1 0 1 vcc-1.sym
C 50000 45100 1 270 0 gnd-1.sym
C 48700 48600 1 0 0 header2.sym
{
T 48900 49600 5 10 0 0 0 0 1
device=CONNECTOR_2
T 48650 48700 5 10 1 1 90 0 1
refdes=J10
T 49100 48700 5 5 0 1 90 0 1
footprint=HE_100mil_2_2
}
C 48800 48200 1 0 0 gnd-1.sym
C 49600 48200 1 0 0 gnd-1.sym
C 49700 48500 1 90 0 switch-pushbutton-no-1.sym
{
T 49100 48900 5 10 0 0 90 0 1
device=SWITCH_PUSHBUTTON_NO
T 49400 48900 5 10 1 1 90 0 1
refdes=S1
T 49800 48500 5 5 1 1 0 0 1
net=GND:3
T 49800 48400 5 5 1 1 0 0 1
net=GND:4
T 49300 48000 5 10 0 1 90 0 1
footprint=SDT21LP
T 49100 51100 5 10 1 1 0 0 1
value=SDT21LP
}
C 45000 45500 1 0 0 header2.sym
{
T 45200 46500 5 10 0 0 0 0 1
device=CONNECTOR_2
T 45100 46150 5 10 1 1 0 0 1
refdes=J6
T 45400 45600 5 5 0 1 90 0 1
footprint=HE_100mil_2_2
}
C 44200 45500 1 0 0 header2.sym
{
T 44400 46500 5 10 0 0 0 0 1
device=CONNECTOR_2
T 44300 46150 5 10 1 1 0 0 1
refdes=J5
T 44600 45600 5 5 0 1 90 0 1
footprint=HE_100mil_2_2
}
C 51400 48500 1 90 0 K12S-LED.sym
{
T 50200 48900 5 10 1 1 90 0 1
refdes=S2
T 49900 48900 5 10 0 0 90 0 1
device=K12S_LED
T 49100 51400 5 10 1 1 0 0 1
value=K12SCLOR01.56NOLFTX
T 50700 49000 5 10 1 1 0 4 1
footprint=K12S
T 50700 48500 5 5 1 1 0 4 1
net=GND:5
}
C 50800 48200 1 0 0 gnd-1.sym
C 50400 48200 1 0 0 gnd-1.sym
C 50600 49900 1 90 0 io-1.sym
{
T 50400 50800 5 10 0 0 90 0 1
net=TRIG:1
T 50000 50100 5 10 0 0 90 0 1
device=none
T 50500 50400 5 10 1 1 90 4 1
value=TRIG
}
N 48900 49500 50500 49500 4
C 45000 43900 1 270 0 gnd-1.sym
C 46700 44000 1 270 0 vcc-1.sym
N 50500 49900 50500 49500 4
C 48400 44300 1 270 0 capacitor-4.sym
{
T 49500 44100 5 10 0 0 270 0 1
device=POLARIZED_CAPACITOR
T 48200 44000 5 10 1 1 0 0 1
refdes=CA1
T 49100 44100 5 10 0 0 270 0 1
symversion=0.1
T 48400 43700 5 10 0 1 0 0 1
footprint=P_2816
T 48200 43650 5 10 1 1 0 0 1
value=220µF 16V
}
C 48300 44200 1 0 0 header2.sym
{
T 48500 45200 5 10 0 0 0 0 1
device=CONNECTOR_2
T 48400 44850 5 10 1 1 0 0 1
refdes=J11
T 48700 44300 5 5 0 1 90 0 1
footprint=HE_100mil_2_2
}
N 48600 44300 48600 44400 4
{
T 48650 44350 5 5 1 1 0 0 1
netname=CA1J
}
T 46350 44600 5 5 1 1 180 1 1
netname=MOSI
T 46350 45000 5 5 1 1 180 1 1
netname=Vcc
T 46350 44200 5 5 1 1 180 1 1
netname=GND
T 45650 45000 5 5 1 1 0 1 1
netname=MISO
N 52100 50500 52100 50400 4
N 52100 49500 52100 49600 4
{
T 52200 49550 5 5 1 1 0 0 1
netname=LED1R
}
N 53000 50500 53000 50400 4
N 53000 49500 53000 49600 4
{
T 53100 49550 5 5 1 1 0 0 1
netname=LED2R
}
N 54000 50500 54000 50400 4
N 54000 49500 54000 49600 4
{
T 54100 49550 5 5 1 1 0 0 1
netname=LED3R
}
N 54900 50500 54900 50400 4
N 54900 49500 54900 49600 4
{
T 55000 49550 5 5 1 1 0 0 1
netname=LED4R
}
N 49100 47000 49200 47000 4
{
T 49200 47050 5 5 1 1 90 0 1
netname=RAM
}
N 48400 47000 48300 47000 4
C 53200 48600 1 90 0 led-3.sym
{
T 52550 49550 5 10 0 0 90 0 1
device=LED
T 52650 49050 5 10 1 1 90 0 1
refdes=D12
T 53300 48800 5 10 0 1 90 0 1
footprint=c0603
T 53300 48500 5 10 0 1 90 0 1
value=LED green
}
C 54200 48600 1 90 0 led-3.sym
{
T 53550 49550 5 10 0 0 90 0 1
device=LED
T 53650 49050 5 10 1 1 90 0 1
refdes=D13
T 54300 48800 5 10 0 1 90 0 1
footprint=c0603
T 54300 48500 5 10 0 1 90 0 1
value=LED blue
}
C 55100 48600 1 90 0 led-3.sym
{
T 54450 49550 5 10 0 0 90 0 1
device=LED
T 54550 49050 5 10 1 1 90 0 1
refdes=D14
T 55200 48800 5 10 0 1 90 0 1
footprint=c0603
T 55200 48500 5 10 0 1 90 0 1
value=LED orange
}
C 51000 49600 1 90 0 resistor-2.sym
{
T 50650 50000 5 10 0 0 90 0 1
device=RESISTOR
T 50300 49800 5 10 0 0 90 0 1
symversion=0.1
T 51300 50050 5 10 0 1 90 4 1
footprint=c0603
T 50900 50050 5 10 1 1 90 4 1
refdes=R15
T 51100 50050 5 10 1 1 90 4 1
value=1kΩ
}
N 50900 49600 50900 49500 4
C 51500 49600 1 90 0 resistor-2.sym
{
T 51150 50000 5 10 0 0 90 0 1
device=RESISTOR
T 50800 49800 5 10 0 0 90 0 1
symversion=0.1
T 51800 50050 5 10 0 1 90 4 1
footprint=c0603
T 51400 50050 5 10 1 1 90 4 1
refdes=R16
T 51600 50050 5 10 1 1 90 4 1
value=1kΩ
}
N 50900 49500 51400 49500 4
N 51400 49500 51400 49600 4
{
T 51500 49550 5 5 1 1 0 0 1
netname=LEDSR
}
C 51000 50400 1 90 0 io-1.sym
{
T 50800 51300 5 10 0 0 90 0 1
net=LED1:1
T 50400 50600 5 10 0 0 90 0 1
device=none
T 50900 50900 5 10 1 1 90 4 1
value=LED1
}
C 51500 50400 1 90 0 io-1.sym
{
T 51300 51300 5 10 0 0 90 0 1
net=OUT:1
T 50900 50600 5 10 0 0 90 0 1
device=none
T 51400 50900 5 10 1 1 90 4 1
value=OUT
}
N 51400 50400 51400 50500 4
N 50900 50400 50900 50500 4
N 48900 48500 48900 48800 4
N 48900 48800 49000 48800 4
N 49000 49100 48900 49100 4
N 48900 49100 48900 49600 4
C 40700 43800 1 90 0 resistor-2.sym
{
T 40350 44200 5 10 0 0 90 0 1
device=RESISTOR
T 40600 44250 5 10 1 1 90 4 1
refdes=R4
T 40800 44250 5 10 0 1 90 4 1
footprint=c0603
T 40350 44250 5 10 1 1 90 4 1
value=1MΩ
T 40000 44000 5 10 0 0 90 0 1
symversion=0.1
}
C 40400 44700 1 0 0 vcc-1.sym
G 47100 40900 1600 1600 0 0 0
/home/falbala/stephan/eda/blinkenlights/blinkenlights-qr.png
